Business Statistics Mid-Term Assessment IB94X0 2021-2022 #1
…
Summary statistics for BMI at the end of the trial.

# To calculate the starting BMI, post-diet BMI and kg lost
(BMI_weight_individual <- adult_diet_data %>%
  group_by(diet_cond, sex) %>%
  summarise(starting_BMI=round(start_weight/(height/100)^2, digits=4),
            post_diet_BMI=round(end_weight/(height/100)^2, digits=4),
            kg_lost=start_weight-end_weight))

## `summarise()` has grouped output by 'diet_cond', 'sex'. You can override using the `.groups` argument.

## # A tibble: 400 x 5
## # Groups:   diet_cond, sex [4]
##    diet_cond    sex    starting_BMI post_diet_BMI kg_lost
##    <fct>        <fct>         <dbl>         <dbl>   <dbl>
##  1 Regular Diet Female         22.9          22.9       0
##  2 Regular Diet Female         22.8          22.4       1
##  3 Regular Diet Female         21.9          20.9       3
##  4 Regular Diet Female         21.8          22.2      -1
##  5 Regular Diet Female         27.1          26.3       2
##  6 Regular Diet Female         24.7          28.5      -9
##  7 Regular Diet Female         28.6          27.7       2
##  8 Regular Diet Female         25.2          23.9       4
##  9 Regular Diet Female         21.8          23.1      -4
## 10 Regular Diet Female         23.3          22.0       4
## # ... with 390 more rows
…
When plotted on a scatter plot, it is again observed that the relationship between impulsivity and age appear to be random and non-linear with a fair distribution of samples between male and female members across every age group. However, examining further with the loess lines, it can be observed that males up to the ages of approximately 50, display a higher impulsivity than females. This trend is then reversed, with females above the ages of 50 tending to show higher impulsivity than males. From these observations, at a younger age, males may have higher impulsivity than females while at an older age, females may have higher impulsivity than males.

Summary statistics for BMI at the end of the trial.

Tabulation of Starting BMI, Post-Diet BMI and Kilograms Lost.

From the sample of 400 observations obtained from the trial, each member is grouped into the diet condition plan of either Regular Diet, or No Chocolate Diet and the sex of the member of either Male, or Female.

## # A tibble: 400 x 5
## # Groups:   diet_cond, sex [4]
##    diet_cond    sex    starting_BMI post_diet_BMI kg_lost
##    <fct>        <fct>         <dbl>         <dbl>   <dbl>
##  1 Regular Diet Female         22.9          22.9       0
##  2 Regular Diet Female         22.8          22.4       1
##  3 Regular Diet Female         21.9          20.9       3
##  4 Regular Diet Female         21.8          22.2      -1
##  5 Regular Diet Female         27.1          26.3       2
##  6 Regular Diet Female         24.7          28.5      -9
##  7 Regular Diet Female         28.6          27.7       2
##  8 Regular Diet Female         25.2          23.9       4
##  9 Regular Diet Female         21.8          23.1      -4
## 10 Regular Diet Female         23.3          22.0       4
## # ... with 390 more rows
…
